{
  "id": "94gvslqkd7",
  "createdAt": "2022-08-28T12:37:47.660Z",
  "userId": "93vtcnv45y",
  "user": {
    "id": "93vtcnv45y",
    "name": "John",
    "username": "john",
    "host": null,
    "avatarUrl": "https://mk.nixnet.social/files/thumbnail-31c8da66-7cd0-4366-824a-99f21d555c51",
    "avatarBlurhash": "y8S6PlRj_3?b%M_3WB~qofM{IUxu-;WBxuRj%MxuM{of%M4nM{?b-;M{IUM{?bayt7xuWBt7Rj%MRjt7t7-;xu%MD%of%M-;D%4nay",
    "avatarColor": null,
    "emojis": [],
    "onlineStatus": "active",
    "driveCapacityOverrideMb": null
  },
  "text": "Round 3: Black Dragon vs. Ghost Raptor \n\n https://battlebots.fandom.com/wiki/Black_Dragon \n https://battlebots.fandom.com/wiki/Ghost_Raptor \n\n Too bad Black Dragon has no net. \n\n #BattleBots #BBChamps",
  "cw": null,
  "visibility": "public",
  "renoteCount": 0,
  "repliesCount": 0,
  "reactions": {},
  "tags": [
    "battlebots",
    "bbchamps"
  ],
  "emojis": [],
  "fileIds": [],
  "files": [],
  "replyId": null,
  "renoteId": null,
  "poll": {
    "multiple": false,
    "expiresAt": "2022-08-30T08:37:47.660Z",
    "choices": [
      {
        "text": "95% Black Dragon wins",
        "votes": 2,
        "isVoted": true
      },
      {
        "text": "80% Black Dragon wins",
        "votes": 1,
        "isVoted": false
      },
      {
        "text": "65% Black Dragon wins",
        "votes": 0,
        "isVoted": false
      },
      {
        "text": "50/50 Even odds",
        "votes": 0,
        "isVoted": false
      },
      {
        "text": "65% Ghost Raptor wins",
        "votes": 0,
        "isVoted": false
      },
      {
        "text": "80% Ghost Raptor wins",
        "votes": 0,
        "isVoted": false
      },
      {
        "text": "95% Ghost Raptor wins",
        "votes": 0,
        "isVoted": false
      }
    ]
  },
  "pending": false
}