{
  "id": "94q44xw5r3",
  "createdAt": "2022-09-03T23:41:15.797Z",
  "userId": "93vtcnv45y",
  "user": {
    "id": "93vtcnv45y",
    "name": "John",
    "username": "john",
    "host": null,
    "avatarUrl": "https://mk.nixnet.social/files/thumbnail-31c8da66-7cd0-4366-824a-99f21d555c51",
    "avatarBlurhash": "y8S6PlRj_3?b%M_3WB~qofM{IUxu-;WBxuRj%MxuM{of%M4nM{?b-;M{IUM{?bayt7xuWBt7Rj%MRjt7t7-;xu%MD%of%M-;D%4nay",
    "avatarColor": null,
    "emojis": [],
    "onlineStatus": "online",
    "driveCapacityOverrideMb": null
  },
  "text": "Round 1: \n  [Ribbot](https://battlebots.fandom.com/wiki/Ribbot)   vs.  [End Game](https://battlebots.fandom.com/wiki/End_Game) \n\n Historical context:\n    1 steps: [Ribbot](https://battlebots.fandom.com/wiki/Ribbot)(14,6) > [End Game](https://battlebots.fandom.com/wiki/End_Game)(16,9) \n    2 steps: [End Game](https://battlebots.fandom.com/wiki/End_Game)(16,9) > [Hydra](https://battlebots.fandom.com/wiki/Hydra)(17,6) > [Ribbot](https://battlebots.fandom.com/wiki/Ribbot)(14,6) \n\n Last time they fought Ribbot won. But it wasn't a blowout. And End Game has a habit of reviewing tapes, learning from mistakes, and planning for each match. Then again, Ribbot is no slouch either. \n\n #BattleBots #BBChamps",
  "cw": null,
  "visibility": "public",
  "renoteCount": 1,
  "repliesCount": 0,
  "reactions": {},
  "tags": [
    "battlebots",
    "bbchamps"
  ],
  "emojis": [],
  "fileIds": [],
  "files": [],
  "replyId": null,
  "renoteId": null,
  "poll": {
    "multiple": false,
    "expiresAt": "2022-09-07T04:41:15.797Z",
    "choices": [
      {
        "text": "95% Ribbot wins",
        "votes": 0,
        "isVoted": false
      },
      {
        "text": "80% Ribbot wins",
        "votes": 0,
        "isVoted": false
      },
      {
        "text": "65% Ribbot wins",
        "votes": 1,
        "isVoted": false
      },
      {
        "text": "50/50 Even odds",
        "votes": 2,
        "isVoted": false
      },
      {
        "text": "65% End Game wins",
        "votes": 2,
        "isVoted": true
      },
      {
        "text": "80% End Game wins",
        "votes": 1,
        "isVoted": false
      },
      {
        "text": "95% End Game wins",
        "votes": 0,
        "isVoted": false
      }
    ]
  },
  "pending": false
}