{
  "id": "94vdjxphs6",
  "createdAt": "2022-09-07T16:03:42.821Z",
  "userId": "93vtcnv45y",
  "user": {
    "id": "93vtcnv45y",
    "name": "John",
    "username": "john",
    "host": null,
    "avatarUrl": "https://mk.nixnet.social/files/thumbnail-31c8da66-7cd0-4366-824a-99f21d555c51",
    "avatarBlurhash": "y8S6PlRj_3?b%M_3WB~qofM{IUxu-;WBxuRj%MxuM{of%M4nM{?b-;M{IUM{?bayt7xuWBt7Rj%MRjt7t7-;xu%MD%of%M-;D%4nay",
    "avatarColor": null,
    "emojis": [],
    "onlineStatus": "active",
    "driveCapacityOverrideMb": null
  },
  "text": "Round 3 Prediction Poll: \n  [Ribbot](https://battlebots.fandom.com/wiki/Ribbot)   vs.  [Glitch](https://battlebots.fandom.com/wiki/Glitch) \n\n  Glitch is the one that does not have past matches with most of the other participants. Why? Because it's only had 7 matches, total. \n\nHistorical context:\n  [Glitch](https://battlebots.com/robot/glitch-2021/) beat [Hydra](https://battlebots.fandom.com/wiki/Hydra) by KO in \"Discovery Season 6\" who beat [Ribbot](https://battlebots.fandom.com/wiki/Ribbot) by KO in \"Discovery Season 6\" \n  [Ribbot](https://battlebots.com/robot/ribbot-2021/) beat [End Game](https://battlebots.fandom.com/wiki/End_Game) by KO in \"Discovery Season 4\" who beat [Witch Doctor](https://battlebots.fandom.com/wiki/Witch_Doctor) by KO in \"Discovery Season 6\" who beat [Glitch](https://battlebots.fandom.com/wiki/Glitch) by KO in \"Discovery Season 6\" \n\n#BattleBots #BBChamps",
  "cw": null,
  "visibility": "public",
  "renoteCount": 0,
  "repliesCount": 0,
  "reactions": {},
  "tags": [
    "battlebots",
    "bbchamps"
  ],
  "emojis": [],
  "fileIds": [],
  "files": [],
  "replyId": null,
  "renoteId": null,
  "poll": {
    "multiple": false,
    "expiresAt": "2022-09-10T21:03:42.821Z",
    "choices": [
      {
        "text": "95% Ribbot wins",
        "votes": 0,
        "isVoted": false
      },
      {
        "text": "80% Ribbot wins",
        "votes": 0,
        "isVoted": false
      },
      {
        "text": "65% Ribbot wins",
        "votes": 0,
        "isVoted": false
      },
      {
        "text": "50/50 Even odds",
        "votes": 2,
        "isVoted": false
      },
      {
        "text": "65% Glitch wins",
        "votes": 1,
        "isVoted": true
      },
      {
        "text": "80% Glitch wins",
        "votes": 1,
        "isVoted": false
      },
      {
        "text": "95% Glitch wins",
        "votes": 0,
        "isVoted": false
      }
    ]
  },
  "pending": true
}