{
  "id": "94vug7l9q8",
  "createdAt": "2022-09-07T23:56:42.477Z",
  "userId": "93vtcnv45y",
  "user": {
    "id": "93vtcnv45y",
    "name": "John",
    "username": "john",
    "host": null,
    "avatarUrl": "https://mk.nixnet.social/files/thumbnail-31c8da66-7cd0-4366-824a-99f21d555c51",
    "avatarBlurhash": "y8S6PlRj_3?b%M_3WB~qofM{IUxu-;WBxuRj%MxuM{of%M4nM{?b-;M{IUM{?bayt7xuWBt7Rj%MRjt7t7-;xu%MD%of%M-;D%4nay",
    "avatarColor": null,
    "emojis": [],
    "onlineStatus": "active",
    "driveCapacityOverrideMb": null
  },
  "text": "Round 3 Prediction Poll: \n  [Tantrum](https://battlebots.fandom.com/wiki/Tantrum)   vs.  [HyperShock](https://battlebots.fandom.com/wiki/HyperShock) \n\n  Tantrum's got some good bones. https://youtu.be/WhaF5V3Xv04?t=203 \n\nHistorical context:\n  [Tantrum](https://battlebots.com/robot/tantrum-2021/) beat [Hydra](https://battlebots.fandom.com/wiki/Hydra) by Split JD in \"Discovery Season 6\" who beat [HyperShock](https://battlebots.fandom.com/wiki/HyperShock) by KO in \"Discovery Season 5\" \n  [HyperShock](https://battlebots.com/robot/hypershock-2021/) beat [Valkyrie](https://battlebots.fandom.com/wiki/Valkyrie) by KO in \"BattleBots: Champions\" who beat [Tantrum](https://battlebots.fandom.com/wiki/Tantrum) by KO in \"Discovery Season 5\" \n\n#BattleBots #BBChamps",
  "cw": null,
  "visibility": "public",
  "renoteCount": 0,
  "repliesCount": 0,
  "reactions": {},
  "tags": [
    "battlebots",
    "bbchamps"
  ],
  "emojis": [],
  "fileIds": [],
  "files": [],
  "replyId": null,
  "renoteId": null,
  "poll": {
    "multiple": false,
    "expiresAt": "2022-09-11T04:56:42.477Z",
    "choices": [
      {
        "text": "95% Tantrum wins",
        "votes": 1,
        "isVoted": true
      },
      {
        "text": "80% Tantrum wins",
        "votes": 0,
        "isVoted": false
      },
      {
        "text": "65% Tantrum wins",
        "votes": 2,
        "isVoted": false
      },
      {
        "text": "50/50 Even odds",
        "votes": 1,
        "isVoted": false
      },
      {
        "text": "65% HyperShock wins",
        "votes": 2,
        "isVoted": false
      },
      {
        "text": "80% HyperShock wins",
        "votes": 0,
        "isVoted": false
      },
      {
        "text": "95% HyperShock wins",
        "votes": 0,
        "isVoted": false
      }
    ]
  },
  "pending": true
}